# << SpawnChecker server seed settings >>
#
# ex) [host_name]/[port]=[seed]
#   awairo.net/1234=9223372036854775807
#
# ex) [ip_address]/[port]=[seed]
#   127.0.0.1/5678=9223372036854775807
#
#Mon Jul 27 18:59:55 JST 2015
example.com/25565=9223372036854775807
